{
  "name": "ACT01_PremiumRateValidation",
  "description": "Compare premium data between excel template and AS400 and report",
  "main": "Main.xaml",
  "dependencies": {
    "Lib": "[1.2.36]",
    "UiPath.Excel.Activities": "[2.7.2]",
    "UiPath.System.Activities": "[19.10.1]",
    "UiPath.Terminal.Activities": "1.3.4",
    "UiPath.UIAutomation.Activities": "[19.11.1]",
    "UiPath.WebAPI.Activities": "[1.4.4]"
  },
  "webServices": [],
  "schemaVersion": "4.0",
  "studioVersion": "19.10.3.0",
  "projectVersion": "1.0.0",
  "runtimeOptions": {
    "autoDispose": false,
    "isPausable": true,
    "requiresUserInteraction": true,
    "supportsPersistence": false,
    "excludedLoggedData": [
      "Private:*",
      "*password*"
    ],
    "executionType": "Workflow"
  },
  "designOptions": {
    "projectProfile": "Developement",
    "outputType": "Process",
    "libraryOptions": {
      "includeOriginalXaml": false,
      "privateWorkflows": []
    },
    "fileInfos": []
  },
  "expressionLanguage": "VisualBasic"
}